{
  "name": "autoinstallation",
  "do": "<ul><li>To represent an autoinstallation process.</li></ul>",
  "dont": "<ul><li>To represent a downloading processs.</li></ul>",
  "tags": ["application", "installation"]
}
