{
  "name": "subscriptions_created",
  "do": "<ul><li>To represent a successfully activated subscription.</li></ul>",
  "dont": "<ul><li>To create a subscription.</li></ul>",
  "tags": ["subscription", "activated"]
}
